"0","df.logs <- df.logs%>%"
"0","  mutate(time_of_day = case_when(.$hour %in% 5:8 ~ ""EarlyMorning"","
"0","                                 .$hour %in% 9:10 ~ ""Morning"","
"0","                                 .$hour %in% 11:20 ~ ""Midday_Afternoon"","
"0","                                 .$hour %in% c(21:23, 0) ~ ""Evening"","
"0","                                 .$hour %in% 1:4 ~""Night""))"
"0","table(df.logs$time_of_day)/nrow(df.logs)"
"1","
"
"1","    EarlyMorning "
"1","         Evening "
"1","Midday_Afternoon "
"1","         Morning "
"1","           Night "
"1","
"
"1","      0.07148864 "
"1","      0.18112267 "
"1","      0.61567071 "
"1","      0.10340244 "
"1","      0.02831554 "
"1","
"
